Social Statistics I (Exercises) - 15 Solutions 6
…
Code

null <- d |> 
  mutate(conservative = if_else(conservative == 1L, "conservative", "other")) |> 
  specify(weekly ~ conservative) |> 
  hypothesize(null = "independence") |> 
  generate(reps = 1e4, type = "permute") |> 
  calculate(stat = "diff in means", order = c("conservative", "other")) 

null

Response: weekly (numeric)
Explanatory: conservative (factor)
Null Hypothesis: independence
# A tibble: 10,000 × 2
   replicate      stat
       <int>     <dbl>
 1         1 -0.0131  
 2         2 -0.00293 
 3         3  0.0153  
 4         4 -0.000898
 5         5  0.0194  
 6         6 -0.0110  
 7         7  0.0214  
 8         8 -0.0232  
 9         9  0.00721 
10        10  0.0133  
# ℹ 9,990 more rows
…
