Social Statistics I (Exercises) - 13 Solutions 1
…
Code

library(palmerpenguins)

13.3.1 Exercise

Code

i <- seq(2, nrow(penguins), by = 2)

penguins |> 
  slice(i)

# A tibble: 172 × 8
   species island    bill_length_mm bill_depth_mm flipper_length_mm body_mass_g
   <fct>   <fct>              <dbl>         <dbl>             <int>       <int>
 1 Adelie  Torgersen           39.5          17.4               186        3800
 2 Adelie  Torgersen           NA            NA                  NA          NA
 3 Adelie  Torgersen           39.3          20.6               190        3650
 4 Adelie  Torgersen           39.2          19.6               195        4675
 5 Adelie  Torgersen           42            20.2               190        4250
 6 Adelie  Torgersen           37.8          17.3               180        3700
 7 Adelie  Torgersen           38.6          21.2               191        3800
 8 Adelie  Torgersen           36.6          17.8               185        3700
 9 Adelie  Torgersen           42.5          20.7               197        4500
10 Adelie  Torgersen           46            21.5               194        4200
# ℹ 162 more rows
# ℹ 2 more variables: sex <fct>, year <int>

Code

penguins |> 
  slice(seq(3, nrow(penguins), by = 3))

# A tibble: 114 × 8
   species island    bill_length_mm bill_depth_mm flipper_length_mm body_mass_g
   <fct>   <fct>              <dbl>         <dbl>             <int>       <int>
 1 Adelie  Torgersen           40.3          18                 195        3250
 2 Adelie  Torgersen           39.3          20.6               190        3650
 3 Adelie  Torgersen           34.1          18.1               193        3475
 4 Adelie  Torgersen           37.8          17.3               180        3700
 5 Adelie  Torgersen           34.6          21.1               198        4400
 6 Adelie  Torgersen           42.5          20.7               197        4500
 7 Adelie  Biscoe              37.8          18.3               174        3400
 8 Adelie  Biscoe              38.2          18.1               185        3950
 9 Adelie  Biscoe              40.6          18.6               183        3550
10 Adelie  Biscoe              40.5          18.9               180        3950
# ℹ 104 more rows
# ℹ 2 more variables: sex <fct>, year <int>

13.3.2 Exercise

Code

penguins |> 
  filter(species == "Gentoo", island == "Biscoe", body_mass_g >= 5000, body_mass_g <= 5500)

# A tibble: 39 × 8
   species island bill_length_mm bill_depth_mm flipper_length_mm body_mass_g
   <fct>   <fct>           <dbl>         <dbl>             <int>       <int>
 1 Gentoo  Biscoe           47.6          14.5               215        5400
 2 Gentoo  Biscoe           46.7          15.3               219        5200
 3 Gentoo  Biscoe           46.8          15.4               215        5150
 4 Gentoo  Biscoe           48.7          15.1               222        5350
 5 Gentoo  Biscoe           45.1          14.5               215        5000
 6 Gentoo  Biscoe           46.3          15.8               215        5050
 7 Gentoo  Biscoe           42.9          13.1               215        5000
 8 Gentoo  Biscoe           46.1          15.1               215        5100
 9 Gentoo  Biscoe           47.3          15.3               222        5250
10 Gentoo  Biscoe           45.1          14.5               207        5050
# ℹ 29 more rows
# ℹ 2 more variables: sex <fct>, year <int>
…
