Social Statistics I (Exercises) - 10 Week 10
…
d

# A tibble: 2,102 × 6
   attend polviews cappun degree                   weekly conservative
    <dbl>    <dbl>  <int> <fct>                     <int>        <int>
 1      5        2      1 associate/junior college      0            1
 2      2        1      1 bachelor's                    0            1
 3      6        0      0 bachelor's                    0            0
 4      8        3      0 graduate                      1            1
 5      4       -1      1 bachelor's                    0            0
 6      7        0      1 high school                   1            0
 7      7        1      1 high school                   1            1
 8      0        0      1 less than high school         0            0
 9      4        2      1 graduate                      0            1
10      5        0      1 high school                   0            0
# ℹ 2,092 more rows
…
Conceptually, the easiest way to estimate these parameters is by doing what’s called a “grid search.” This is also the most inefficient way to do it from a computational point of view.

We can create a “grid” like this:

Code

grid <- expand_grid(
  alpha = seq(-1, 1, by = 0.02), 
  beta1 = seq(-1, 1, by = 0.02),
  beta2 = seq(-1, 1, by = 0.02)
)

grid

# A tibble: 1,030,301 × 3
   alpha beta1 beta2
   <dbl> <dbl> <dbl>
 1    -1    -1 -1   
 2    -1    -1 -0.98
 3    -1    -1 -0.96
 4    -1    -1 -0.94
 5    -1    -1 -0.92
 6    -1    -1 -0.9 
 7    -1    -1 -0.88
 8    -1    -1 -0.86
 9    -1    -1 -0.84
10    -1    -1 -0.82
# ℹ 1,030,291 more rows
…
broom::glance(mod)

# A tibble: 1 × 8
  null.deviance df.null logLik   AIC   BIC deviance df.residual  nobs
          <dbl>   <int>  <dbl> <dbl> <dbl>    <dbl>       <int> <int>
1         2767.    2101 -1346. 2698. 2715.    2692.        2099  2102

Code

## the .fitted values are predictions in log-odds
## add type.predict = "response" to get predicted probabilities for each row.
broom::augment(mod) 

# A tibble: 2,102 × 9
   cappun conservative weekly .fitted .resid     .hat .sigma  .cooksd .std.resid
    <int>        <int>  <int>   <dbl>  <dbl>    <dbl>  <dbl>    <dbl>      <dbl>
 1      1            1      0  1.22    0.719 0.00165    1.13 0.000162      0.719
 2      1            1      0  1.22    0.719 0.00165    1.13 0.000162      0.719
 3      0            0      0  0.358  -1.33  0.000800   1.13 0.000382     -1.33 
 4      0            1      1  0.848  -1.55  0.00268    1.13 0.00209      -1.55 
 5      1            0      0  0.358   1.03  0.000800   1.13 0.000187      1.03 
 6      1            0      1 -0.0158  1.18  0.00288    1.13 0.000981      1.19 
 7      1            1      1  0.848   0.844 0.00268    1.13 0.000384      0.845
 8      1            0      0  0.358   1.03  0.000800   1.13 0.000187      1.03 
 9      1            1      0  1.22    0.719 0.00165    1.13 0.000162      0.719
10      1            0      0  0.358   1.03  0.000800   1.13 0.000187      1.03 
# ℹ 2,092 more rows
…
