Social Statistics I (Exercises) - 3 Week 3
…
dem_prob_pop: the probability that the person will vote for “Democrats” in the population

sample_size: the number of people in each “poll” (or sample)

num_sims: number of simulations

Third, inspect the simulation data set.

Code

sims <- simulation_votes(dem_prob_pop = 0.75, sample_size = 90, num_sims = 1e3)
sims

# A tibble: 90,000 × 5
      id vote  dem_prob_pop sample_size num_sims
   <int> <chr> <chr>        <chr>       <chr>   
 1     1 Dem   0.75         90          1000    
 2     1 Rep   0.75         90          1000    
 3     1 Dem   0.75         90          1000    
 4     1 Dem   0.75         90          1000    
 5     1 Dem   0.75         90          1000    
 6     1 Rep   0.75         90          1000    
 7     1 Rep   0.75         90          1000    
 8     1 Dem   0.75         90          1000    
 9     1 Dem   0.75         90          1000    
10     1 Dem   0.75         90          1000    
# ℹ 89,990 more rows
…
Code

## First I'll set up the ggplot2 theme I personally like best.
## You might not have this font if you are on a Windows computer
theme_set(theme_light(base_family = "Avenir Next Condensed")) 

sims <- simulation_votes(dem_prob_pop = 0.52, sample_size = 300, num_sims = 500)

results <- sims |> 
  group_by(id) |> 
  summarize(dem_prop = mean(vote == "Dem"))

results

# A tibble: 500 × 2
      id dem_prop
   <int>    <dbl>
 1     1    0.52 
 2     2    0.497
 3     3    0.547
 4     4    0.51 
 5     5    0.557
 6     6    0.483
 7     7    0.55 
 8     8    0.49 
 9     9    0.547
10    10    0.55 
# ℹ 490 more rows
…
